<?xml version="1.0" encoding="UTF-8" standalone="no"?>
<svg
   xmlns:dc="http://purl.org/dc/elements/1.1/"
   xmlns:cc="http://creativecommons.org/ns#"
   xmlns:rdf="http://www.w3.org/1999/02/22-rdf-syntax-ns#"
   xmlns:svg="http://www.w3.org/2000/svg"
   xmlns="http://www.w3.org/2000/svg"
   xmlns:sodipodi="http://sodipodi.sourceforge.net/DTD/sodipodi-0.dtd"
   xmlns:inkscape="http://www.inkscape.org/namespaces/inkscape"
   height="256"
   viewBox="0 -39 191.99999 191.99999"
   width="256"
   version="1.1"
   id="svg1079"
   sodipodi:docname="home-icon.svg"
   inkscape:export-filename="/home/bkurczynski/Documents/resume/images/icons/home-icon.png"
   inkscape:export-xdpi="300"
   inkscape:export-ydpi="300"
   inkscape:version="0.92.4 (unknown)">
  <metadata
     id="metadata1085">
    <rdf:RDF>
      <cc:Work
         rdf:about="">
        <dc:format>image/svg+xml</dc:format>
        <dc:type
           rdf:resource="http://purl.org/dc/dcmitype/StillImage" />
        <dc:title></dc:title>
      </cc:Work>
    </rdf:RDF>
  </metadata>
  <defs
     id="defs1083" />
  <sodipodi:namedview
     pagecolor="#ffffff"
     bordercolor="#666666"
     borderopacity="1"
     objecttolerance="10"
     gridtolerance="10"
     guidetolerance="10"
     inkscape:pageopacity="0"
     inkscape:pageshadow="2"
     inkscape:window-width="3840"
     inkscape:window-height="2032"
     id="namedview1081"
     showgrid="false"
     inkscape:pagecheckerboard="true"
     units="px"
     inkscape:zoom="5.1650391"
     inkscape:cx="170.66667"
     inkscape:cy="170.66667"
     inkscape:window-x="0"
     inkscape:window-y="54"
     inkscape:window-maximized="1"
     inkscape:current-layer="svg1079" />
  <circle
     style="fill:#ffffff;stroke-width:0.24205437"
     id="path4809"
     cx="95.999992"
     cy="56.999996"
     r="96" />
  <g
     id="g4807"
     transform="matrix(0.2636726,0,0,0.2636726,28.499809,67.230181)">
    <path
       style="fill:#84b75b"
       inkscape:connector-curvature="0"
       id="path1045"
       d="m 512,148.47657 c 0,7.89063 -1.125,15.51563 -3.21875,22.72656 -1.23438,4.26954 -5.16016,7.19922 -9.60547,7.19922 H 354.96094 c -3.67188,-9.25781 -5.6875,-19.35547 -5.6875,-29.92578 0,-42.61719 32.76953,-77.582032 74.48047,-81.074222 2.26562,-0.19531 4.5625,-0.28906 6.88281,-0.28906 44.9375,0 81.36328,36.425782 81.36328,81.363282 z m 0,0" />
    <path
       style="fill:#69a833"
       inkscape:connector-curvature="0"
       id="path1047"
       d="m 467.21875,158.98438 c 0,6.64454 -0.98828,13.15625 -2.94531,19.41797 h -109.3125 c -3.67188,-9.25781 -5.6875,-19.35547 -5.6875,-29.92578 0,-42.61719 32.76953,-77.582032 74.48047,-81.074222 v 30.15235 c 25.29296,8.964842 43.46484,33.109372 43.46484,61.429682 z m 0,0" />
    <path
       style="fill:#a0d37d"
       inkscape:connector-curvature="0"
       id="path1049"
       d="m 157.04687,178.39845 c 3.85157,-9.73828 5.88282,-20.39453 5.66407,-31.55078 C 161.88281,104.44923 128.05859,69.429698 85.714844,67.226568 38.804688,64.781258 0,102.09767 0,148.47657 c 0,7.88672 1.121094,15.51172 3.21875,22.72656 1.238281,4.26954 5.160156,7.19532 9.605469,7.19532 z m 0,0" />
    <path
       style="fill:#ebeef2"
       inkscape:connector-curvature="0"
       id="path1051"
       d="M 411.39453,-100.96093 V 178.39454 H 91.363281 c -5.523437,0 -10,-4.47656 -10,-10 V -100.96093 L 246.37891,-249.12109 Z m 0,0" />
    <path
       style="fill:#d3d8df"
       inkscape:connector-curvature="0"
       id="path1053"
       d="M 162.54687,178.39845 411.39453,-70.464832 V 178.39845 Z m 0,0" />
    <path
       style="fill:#7fb7ea"
       inkscape:connector-curvature="0"
       id="path1055"
       d="m 366.86719,16.832038 h -19.05078 c -5.84375,0 -10.58204,4.73828 -10.58204,10.58203 v 89.976562 h 40.21485 V 27.414068 c 0,-5.84375 -4.73828,-10.58203 -10.58203,-10.58203 z m 0,0" />
    <path
       style="fill:#7fb7ea"
       inkscape:connector-curvature="0"
       id="path1057"
       d="M 155.52344,117.39063 V 27.414068 c 0,-5.84375 -4.73828,-10.58203 -10.58203,-10.58203 h -19.04688 c -5.84765,0 -10.58594,4.73828 -10.58594,10.58203 v 89.976572" />
    <path
       style="fill:#5f9eeb"
       inkscape:connector-curvature="0"
       id="path1059"
       d="M 411.39844,178.39845 H 91.363281 c -5.523437,0 -10,-4.47657 -10,-10 V 117.39063 H 411.39844 Z m 0,0" />
    <path
       style="fill:#5f9eeb"
       inkscape:connector-curvature="0"
       id="path1061"
       d="m 411.39453,117.39063 v 61.00782 H 91.367188 c -5.523438,0 -10,-4.47657 -10,-10 v -51.00782 z m 0,0" />
    <path
       style="fill:#3a82d0"
       inkscape:connector-curvature="0"
       id="path1063"
       d="m 411.39453,117.39063 v 61.00782 H 162.54687 l 61.00782,-61.00782 z m 0,0" />
    <path
       style="fill:#7b8c98"
       inkscape:connector-curvature="0"
       id="path1065"
       d="M 298.09766,27.414068 V 178.39845 H 194.66406 V 27.414068 c 0,-5.84375 4.73828,-10.58203 10.58203,-10.58203 h 82.26953 c 5.84375,0 10.58204,4.73828 10.58204,10.58203 z m 0,0" />
    <path
       style="fill:#627687"
       inkscape:connector-curvature="0"
       id="path1067"
       d="M 298.09766,42.835948 V 178.39845 h -103.4336 v -32.11719 z m 0,0" />
    <path
       style="fill:#d3d8df"
       inkscape:connector-curvature="0"
       id="path1069"
       d="m 411.39453,-100.96093 v 65.531248 L 246.37891,-183.58202 81.363281,-35.417962 V -100.96093 L 246.37891,-249.12109 Z m 0,0" />
    <path
       style="fill:#5f9eeb"
       inkscape:connector-curvature="0"
       id="path1071"
       d="M 427.12891,-37.910152 246.37891,-200.18749 65.632812,-37.910152 c -4.351562,3.90625 -11.042968,3.54297 -14.945312,-0.80468 l -17.675781,-19.6836 c -3.902344,-4.35156 -3.542969,-11.04297 0.804687,-14.94531 L 230.47266,-249.90624 c 9.05078,-8.125 22.76562,-8.125 31.8125,0 l 196.65625,176.562498 c 4.35156,3.90625 4.71093,10.59375 0.80468,14.94531 l -17.67187,19.6836 c -3.90625,4.35156 -10.59766,4.71093 -14.94531,0.80468 z m 0,0" />
    <path
       style="fill:#455e6d"
       inkscape:connector-curvature="0"
       id="path1073"
       d="m 272.83594,114.10548 c -4.26563,0 -7.72657,-3.45703 -7.72657,-7.72656 v -8.761722 c 0,-4.26953 3.46094,-7.72656 7.72657,-7.72656 4.26953,0 7.72656,3.45703 7.72656,7.72656 v 8.761722 c 0,4.26953 -3.45703,7.72656 -7.72656,7.72656 z m 0,0" />
    <path
       style="fill:#eb5777"
       inkscape:connector-curvature="0"
       id="path1075"
       d="m 288.66406,-67.136712 c 0,23.35547 -18.92969,42.28516 -42.28515,42.28516 -23.35157,0 -42.28516,-18.92969 -42.28516,-42.28516 0,-23.35156 18.93359,-42.285158 42.28516,-42.285158 23.35546,0 42.28515,18.933598 42.28515,42.285158 z m 0,0" />
    <path
       style="fill:#a0d37d"
       inkscape:connector-curvature="0"
       id="path1077"
       d="m 453.55859,170.6797 c 1.05078,-4.65235 1.48828,-9.53907 1.22266,-14.57032 -1.43359,-27.02343 -23.53906,-48.8125 -50.58203,-49.875 -30.12891,-1.1914 -54.92578,22.88282 -54.92578,52.75 0,6.85547 1.30859,13.40625 3.6875,19.41407 h 90.85547 c 4.64453,0 8.71484,-3.1875 9.74218,-7.71875 z m 0,0" />
  </g>
</svg>
