<?xml version="1.0" encoding="UTF-8" standalone="no"?>
<svg
   xmlns:dc="http://purl.org/dc/elements/1.1/"
   xmlns:cc="http://creativecommons.org/ns#"
   xmlns:rdf="http://www.w3.org/1999/02/22-rdf-syntax-ns#"
   xmlns:svg="http://www.w3.org/2000/svg"
   xmlns="http://www.w3.org/2000/svg"
   xmlns:sodipodi="http://sodipodi.sourceforge.net/DTD/sodipodi-0.dtd"
   xmlns:inkscape="http://www.inkscape.org/namespaces/inkscape"
   id="Group_1282"
   data-name="Group 1282"
   width="256"
   height="256"
   viewBox="0 0 256 256.00001"
   version="1.1"
   sodipodi:docname="linkedin-icon.svg"
   inkscape:export-filename="/home/bkurczynski/Documents/resume/images/icons/linkedin-icon.png"
   inkscape:export-xdpi="300"
   inkscape:export-ydpi="300"
   inkscape:version="0.92.4 (unknown)">
  <metadata
     id="metadata4848">
    <rdf:RDF>
      <cc:Work
         rdf:about="">
        <dc:format>image/svg+xml</dc:format>
        <dc:type
           rdf:resource="http://purl.org/dc/dcmitype/StillImage" />
        <dc:title></dc:title>
      </cc:Work>
    </rdf:RDF>
  </metadata>
  <defs
     id="defs4846" />
  <sodipodi:namedview
     pagecolor="#ffffff"
     bordercolor="#666666"
     borderopacity="1"
     objecttolerance="10"
     gridtolerance="10"
     guidetolerance="10"
     inkscape:pageopacity="0"
     inkscape:pageshadow="2"
     inkscape:window-width="3840"
     inkscape:window-height="2032"
     id="namedview4844"
     showgrid="false"
     inkscape:pagecheckerboard="true"
     inkscape:zoom="3.6126506"
     inkscape:cx="-50.404024"
     inkscape:cy="32.662998"
     inkscape:window-x="0"
     inkscape:window-y="54"
     inkscape:window-maximized="1"
     inkscape:current-layer="Group_1282" />
  <circle
     style="fill:#ffffff;stroke-width:1.89950907"
     id="path4850"
     cx="128"
     cy="128"
     r="128" />
  <path
     id="Path_2520"
     data-name="Path 2520"
     d="M 186.08781,186.08914 H 161.63997 V 147.8028 c 0,-9.12974 -0.16299,-20.88253 -12.71542,-20.88253 -12.73325,0 -14.68144,9.94722 -14.68144,20.21785 v 38.94847 h -24.44784 v -78.73223 h 23.46993 v 10.75959 h 0.32852 a 25.721165,25.721165 0 0 1 23.15669,-12.71796 c 24.7789,0 29.34759,16.29856 29.34759,37.50196 z M 82.20996,96.592217 A 14.187387,14.187387 0 1 1 96.394801,82.40228 14.187387,14.187387 0 0 1 82.20996,96.592217 M 94.433879,186.08914 H 69.960574 V 107.35436 H 94.433879 Z M 198.27608,45.514058 H 57.675535 A 12.040561,12.040561 0 0 0 45.5,57.406913 V 198.59064 a 12.048201,12.048201 0 0 0 12.175535,11.90559 H 198.27608 A 12.073668,12.073668 0 0 0 210.5,198.59064 V 57.396724 A 12.066028,12.066028 0 0 0 198.27608,45.503869"
     inkscape:connector-curvature="0"
     style="fill:#0a66c2;stroke-width:2.54664993" />
</svg>
